<?xml version="1.0" encoding="utf-8"?>
<!-- Generator: Adobe Illustrator 16.0.4, SVG Export Plug-In . SVG Version: 6.00 Build 0)  -->
<!DOCTYPE svg PUBLIC "-//W3C//DTD SVG 1.1//EN" "http://www.w3.org/Graphics/SVG/1.1/DTD/svg11.dtd">
<svg version="1.1" id="Layer_1" xmlns="http://www.w3.org/2000/svg" xmlns:xlink="http://www.w3.org/1999/xlink" x="0px" y="0px"
	 width="948.449px" height="151.346px" viewBox="0 0 948.449 151.346" enable-background="new 0 0 948.449 151.346"
	 xml:space="preserve">
<g>
	<g>
		<path fill-rule="evenodd" clip-rule="evenodd" fill="#60311E" d="M620.168,96.413c-2.408,0-3.609-1.548-3.738-5.045
			c1.183-7.363,0.525-14.783,0.469-22.167c-0.133-17.353,0.732-34.717-0.467-52.06c-0.384-2.89,1.067-4.425,3.734-5.067
			c8.839,1.279,17.729,0.521,26.586,0.499c12.471-0.031,24.958,0.698,37.414-0.448c5.755,4.367,5.759,16.27,0.004,20.248
			c-14.931-0.767-29.861-1.203-44.784,0.205c-1.887,4.204-1.87,8.409-0.002,12.614c11.514,1.371,23.035,1.033,34.558,0.168
			c5.085,4.291,5.062,14.436-0.042,18.988c-11.51-0.68-23.017-1.145-34.514,0.256c-1.852,3.777-1.843,7.557-0.002,11.334
			c7.076,1.723,14.264,0.622,21.393,0.674c7.794,0.056,15.625,0.752,23.4-0.465c5.735,4.173,5.728,16.052-0.013,20.253
			c-15.423-1.19-30.867-0.314-46.3-0.469C631.974,95.873,626.037,95.237,620.168,96.413z"/>
		<path fill-rule="evenodd" clip-rule="evenodd" fill="#60311E" d="M616.432,17.141c1.554,1.309,1.135,3.115,1.137,4.773
			c0.021,21.561,0.021,43.122,0,64.682c-0.002,1.658,0.421,3.465-1.139,4.771C616.432,66.626,616.432,41.884,616.432,17.141z"/>
		<path fill-rule="evenodd" clip-rule="evenodd" fill="#60311E" d="M684.166,12.125c-1.101,1.335-2.636,1.133-4.097,1.133
			c-18.611,0.007-37.223,0.006-55.833,0c-1.462,0-2.998,0.187-4.07-1.185C641.5,11.492,662.832,11.393,684.166,12.125z"/>
		<path fill-rule="evenodd" clip-rule="evenodd" fill="#60311E" d="M620.168,96.413c1.089-1.35,2.623-1.156,4.087-1.156
			c18.604-0.007,37.212-0.007,55.818,0c1.462,0,2.998-0.204,4.091,1.144C662.832,97.09,641.5,97.073,620.168,96.413z"/>
		<path fill-rule="evenodd" clip-rule="evenodd" fill="#60311E" d="M639.386,32.578c0.775-1.262,2.031-1.369,3.321-1.369
			c12.886-0.002,25.771-0.025,38.656,0.049c0.938,0.005,1.871,0.727,2.807,1.115C669.241,32.441,654.314,32.509,639.386,32.578z"/>
		<path fill-rule="evenodd" clip-rule="evenodd" fill="#60311E" d="M684.177,76.147c-1.921,1.982-4.39,1.111-6.612,1.13
			c-10.775,0.091-21.551,0.079-32.324,0.007c-2.003-0.014-4.299,0.785-5.856-1.346C654.314,76.007,669.245,76.077,684.177,76.147z"
			/>
		<path fill-rule="evenodd" clip-rule="evenodd" fill="#60311E" d="M639.386,64.604c2.21-2.497,5.167-1.411,7.717-1.292
			c8.931,0.416,17.954-1.419,26.797,1.036C662.4,65.221,650.894,64.747,639.386,64.604z"/>
		<path fill-rule="evenodd" clip-rule="evenodd" fill="#60311E" d="M673.941,45.36c-9.05,2.67-18.307,0.613-27.456,1.133
			c-2.352,0.133-5.108,1.096-7.102-1.301C650.903,45.248,662.424,45.304,673.941,45.36z"/>
	</g>
	<path fill-rule="evenodd" clip-rule="evenodd" fill="#60311E" d="M207.603,12.118c-6.82,1.843-13.42,1.965-20.232,0.019
		C195.384,11.897,199.117,12.076,207.603,12.118z"/>
	<g>
		<path fill-rule="evenodd" clip-rule="evenodd" fill="#60311E" d="M208.03,12.118c10.275,10.287,12.549,13.96,19.197,20.957
			c2.252,2.78,2.995,2.803,5.394,0.113c6.299-7.057,11.875-12.875,19.034-21.062c8.002-0.156,13.631,0.94,20.443-0.049
			c4.991,0,4.991,5.032,1.276,9.533c-8.833,9.711-15.426,16.533-23.943,26.595c-3.633,3.841-4.742,6.402-0.361,10.837
			c8.966,9.078,17.14,18.936,25.764,28.359c3.495,3.82,3.401,9.066-1.474,8.997c-7.618,0.06-10.5,0.06-19.166,0.038
			c-8.524-9.286-12.975-13.385-20.156-21.517c-3.039-3.371-3.853-4.786-8.135-0.182c-6.534,7.385-11.838,13.801-19.178,21.635
			c-6.389-0.778-12.775-0.907-19.156,0.095c-5.855,0.441-5.325-5.164-1.979-9.083c8.815-10.331,17.504-20.773,26.499-30.945
			c2.299-2.6,2.505-3.957,0.013-6.596c-8.589-9.095-16.802-18.545-25.254-27.772c-3.404-3.718-5.134-9.328,0.733-9.997
			C194.526,12.077,200.078,12.077,208.03,12.118z"/>
		<path fill-rule="evenodd" clip-rule="evenodd" fill="#60311E" d="M272.341,12.082c-6.809,1.945-13.867,1.873-20.687,0.044
			C259.87,12.076,264.02,12.08,272.341,12.082z"/>
		<path fill-rule="evenodd" clip-rule="evenodd" fill="#60311E" d="M254.194,96.437c6.385-1.964,12.347-1.901,18.739-0.038
			C266.169,96.441,261.151,96.493,254.194,96.437z"/>
		<path fill-rule="evenodd" clip-rule="evenodd" fill="#60311E" d="M187.142,96.468c6.375-2.096,12.763-1.834,19.157-0.095
			C199.757,96.493,193.564,96.458,187.142,96.468z"/>
	</g>
	<g>
		<path fill-rule="evenodd" clip-rule="evenodd" fill="#60311E" d="M603.478,12.083c3.933,1.178,4.616,3.886,3.176,7.292
			c-1.729,4.078-3.649,8.076-5.553,12.077c-9.526,20.037-18.59,39.704-28.684,60.061c-1.609,3.248-1.685,4.924-4.816,4.924
			c-5.11-0.94-10.225-0.899-15.338-0.021c-2.07-0.148-2.998-2.718-3.84-4.473c-11.287-23.537-22.526-47.097-33.681-70.697
			c-1.773-3.752-3.665-9.177,2.933-9.167c5.614,0.009,10.84,0.009,16.619,0.014c2.248-0.014,3.524,3.32,4.513,5.448
			c7.027,15.114,13.924,30.287,21.191,46.161c4.296-7.527,6.072-12.037,8.813-17.801c4.731-9.938,9.218-19.99,13.841-29.979
			c0.849-1.836,1.06-3.717,4.203-3.84C592.394,12.984,597.936,12.981,603.478,12.083z"/>
		<path fill-rule="evenodd" clip-rule="evenodd" fill="#60311E" d="M534.294,12.091c-5.541,1.909-11.079,1.931-16.619-0.014
			C523.216,12.082,528.754,12.086,534.294,12.091z"/>
		<path fill-rule="evenodd" clip-rule="evenodd" fill="#60311E" d="M603.478,12.083c-5.542,1.927-11.082,1.933-16.622-0.003
			C592.396,12.081,597.936,12.082,603.478,12.083z"/>
		<path fill-rule="evenodd" clip-rule="evenodd" fill="#60311E" d="M552.263,96.415c5.115-1.838,10.228-1.869,15.338,0.021
			C562.488,96.428,557.376,96.421,552.263,96.415z"/>
	</g>
	<g>
		<path fill-rule="evenodd" clip-rule="evenodd" fill="#60311E" d="M846.851,44.18c17.389,0.878,21.226,16.146,18.936,32.545
			c-1.784,12.787-6.486,17.221-18.978,19.559c-17.898-0.599-35.796-0.83-53.691,0.113c-5.472-3.82-5.469-15.455,0.002-20.236
			c16.343,1.155,32.703,0.333,49.055,0.404c0.285,0.002,0.55-0.571,0.794-0.932c1.556-3.983,1.174-7.967,0.004-11.952
			c-3.294-0.528-3.244-0.935-4.756-0.908c-10.39,0.184-20.598-0.802-30.975,0.268c-12.45-1.936-17.193-6.345-19.141-17.795
			c0.871-4.665,0.803-9.333,0.033-14.001c1.966-12.629,6.295-16.95,19.113-19.083c17.483,0.739,34.966,0.886,52.447-0.072
			c2.967,0.175,3.946,2.144,4.063,4.708c0.077,1.693-0.023,3.41-0.207,5.099c-1.242,11.521-1.255,11.516-12.666,11.513
			c-10.861-0.004-21.724-0.004-32.585,0c-9.274,0.002-10.058,1.132-7.232,10.408C822.979,45.477,834.915,44.75,846.851,44.18z"/>
		<path fill-rule="evenodd" clip-rule="evenodd" fill="#60311E" d="M793.117,96.397c0.915-1.136,2.201-1.143,3.488-1.143
			c15.552,0,31.104,0,46.654,0.001c1.28,0,2.575-0.033,3.549,1.028C828.913,96.991,811.015,96.805,793.117,96.397z"/>
		<path fill-rule="evenodd" clip-rule="evenodd" fill="#60311E" d="M859.694,12.09c-0.907,1.146-2.191,1.167-3.484,1.167
			c-15.149,0.002-30.3,0.002-45.449,0.002c-1.284,0-2.577,0.02-3.514-1.098C824.729,11.558,842.209,11.658,859.694,12.09z"/>
		<path fill-rule="evenodd" clip-rule="evenodd" fill="#60311E" d="M842.968,75.633c-0.733,1.721-2.267,1.675-3.757,1.675
			c-14.423,0.005-28.843,0.022-43.263-0.049c-0.944-0.005-1.887-0.717-2.829-1.099C809.736,75.985,826.353,75.809,842.968,75.633z"
			/>
		<path fill-rule="evenodd" clip-rule="evenodd" fill="#60311E" d="M846.851,44.18c-11.945,1.596-23.882,2.322-35.783-0.362
			C822.995,43.938,834.922,44.059,846.851,44.18z"/>
		<path fill-rule="evenodd" clip-rule="evenodd" fill="#60311E" d="M807.241,63.041c11.94-1.424,23.878-2.635,35.733,0.64
			C831.064,63.468,819.152,63.254,807.241,63.041z"/>
		<path fill-rule="evenodd" clip-rule="evenodd" fill="#60311E" d="M788.134,31.245c1.772,4.671,1.816,9.339-0.033,14.001
			C787.548,40.578,787.604,35.911,788.134,31.245z"/>
	</g>
	<g>
		<g>
			<path fill-rule="evenodd" clip-rule="evenodd" fill="#60311E" d="M449.951,17.156c-0.244-2.756,1.1-4.352,3.686-5.041
				c4.678,0.838,9.356,0.856,14.033-0.009c2.158,0.353,3.401,1.6,3.695,3.776c-1.101,8.856-0.48,17.75-0.428,26.62
				c0.097,16.712-0.69,33.436,0.427,50.14c-0.321,2.153-1.552,3.41-3.703,3.758c-5.227,0.011-9.141,0.073-14.043,0.025
				c-7.622-7.065-7.115-7.128-11.331-11.945c-9.14-10.443-18.117-20.844-26.697-31.604c-2.738-3.435-3.096-5.61-3.096-1.142
				c-0.942,13.638-0.839,27.278-0.049,40.919c-0.277,2.202-1.503,3.463-3.715,3.747c-4.671-0.864-9.344-0.811-14.018-0.025
				c-3.707-1.047-3.853-4.142-3.859-7.101c-0.051-23.35-0.05-46.7-0.001-70.051c0.006-2.962,0.15-6.053,3.869-7.083
				c6.533-0.033,11.389,0.053,16.565,0.003c3.74-0.036,15.076,17.526,22.585,26.313c4.545,5.32,8.84,10.854,13.264,16.278
				c0.586,0.719,1.142,2.175,2.242,1.191c0.605-0.543,0.411-1.978,0.578-3.01C450.72,40.994,450.724,29.075,449.951,17.156z"/>
		</g>
		<path fill-rule="evenodd" clip-rule="evenodd" fill="#60311E" d="M471.364,92.642c-1.514-1.331-1.095-3.131-1.096-4.79
			c-0.021-22.394-0.021-44.788,0-67.182c0.001-1.657-0.424-3.458,1.097-4.787C471.365,41.469,471.364,67.056,471.364,92.642z"/>
		<path fill-rule="evenodd" clip-rule="evenodd" fill="#60311E" d="M412.445,92.653c-2.544-8.545-0.766-17.284-0.985-25.92
			c-0.126-4.964-1.465-10.163,1.035-14.999C412.478,65.373,412.461,79.012,412.445,92.653z"/>
		<path fill-rule="evenodd" clip-rule="evenodd" fill="#60311E" d="M449.951,17.156c1.813,11.919,1.807,23.838,0.003,35.758
			C449.954,40.994,449.952,29.075,449.951,17.156z"/>
		<path fill-rule="evenodd" clip-rule="evenodd" fill="#60311E" d="M411.286,12.142c-5.522,1.816-11.044,1.822-16.565-0.003
			C400.601,12.106,405.499,11.893,411.286,12.142z"/>
		<path fill-rule="evenodd" clip-rule="evenodd" fill="#60311E" d="M467.67,12.106c-4.676,1.879-9.354,1.869-14.033,0.009
			C458.314,12.112,462.992,12.109,467.67,12.106z"/>
		<path fill-rule="evenodd" clip-rule="evenodd" fill="#60311E" d="M453.618,96.425c4.678-1.911,9.359-1.878,14.043-0.025
			C462.98,96.41,458.299,96.417,453.618,96.425z"/>
		<path fill-rule="evenodd" clip-rule="evenodd" fill="#60311E" d="M394.712,96.375c4.675-1.785,9.349-1.82,14.018,0.025
			C404.057,96.392,399.384,96.383,394.712,96.375z"/>
	</g>
	<g>
		<path fill-rule="evenodd" clip-rule="evenodd" fill="#60311E" d="M497.777,3.012c2.781,0.238,5.932,2.775,7.024,6.264
			c1.712,5.462-0.323,11.545-4.896,13.795c-5.477,2.694-12.394,0.995-15.3-3.757c-2.946-4.818-1.748-11.146,2.768-14.976
			c2.568-1.292-0.111-0.241,3.484-1.394C493.418,2.945,494.674,2.761,497.777,3.012z"/>
		<path fill-rule="evenodd" clip-rule="evenodd" fill="#60311E" d="M502.241,33.92c3.053,0.791,3.672,3.167,3.675,5.831
			c0.02,16.933,0.019,33.864-0.007,50.795c-0.006,2.664-0.622,5.042-3.677,5.832c-4.678-0.773-9.354-0.875-14.025,0.05
			c-4.192,0.028-4.729-3.032-4.744-6.066c-0.091-16.814-0.096-33.63-0.002-50.444c0.017-3.018,0.524-6.119,4.748-6.062
			C492.882,34.81,497.562,34.677,502.241,33.92z"/>
		<path fill-rule="evenodd" clip-rule="evenodd" fill="#60311E" d="M488.207,96.427c4.668-1.899,9.345-1.835,14.025-0.05
			C497.559,96.393,492.882,96.411,488.207,96.427z"/>
		<path fill-rule="evenodd" clip-rule="evenodd" fill="#60311E" d="M502.241,33.92c-4.685,1.793-9.364,1.889-14.032-0.065
			C492.887,33.877,497.564,33.899,502.241,33.92z"/>
	</g>
	<g>
		<path fill-rule="evenodd" clip-rule="evenodd" fill="#60311E" d="M160.229,45.336c5.757,4.009,5.737,14.547-0.034,19.038
			c-11.514-0.721-23.025-1.19-34.522,0.257c-1.433,3.759-1.427,7.52-0.005,11.28c6.224,1.697,12.575,0.699,18.852,0.699
			c8.647,0,17.327,0.801,25.952-0.512c2.235,0.293,3.559,1.481,3.731,3.801c-0.903,4.255-0.859,8.512-0.022,12.77
			c-0.208,2.274-1.509,3.479-3.718,3.79c-7.986-1.338-16.032-0.536-24.041-0.513c-13.319,0.037-26.653-0.696-39.962,0.433
			c-2.542-0.723-3.557-2.548-3.645-5.044c0.982-15.769,0.29-31.554,0.372-47.331c0.046-8.942,0.579-17.903-0.369-26.837
			c0.201-2.413,0.878-4.485,3.641-5.052c15.426,1.189,30.876,0.32,46.314,0.466c5.889,0.056,11.828,0.739,17.689-0.513
			c2.256,0.275,3.432,1.599,3.699,3.808c-0.808,4.242-0.841,8.482,0.017,12.722c0.079,2.553-1.225,3.762-3.713,3.814
			c-14.935-0.832-29.867-1.256-44.792,0.192c-1.465,4.187-1.458,8.374-0.005,12.561C137.182,46.585,148.704,46.236,160.229,45.336z"
			/>
		<path fill-rule="evenodd" clip-rule="evenodd" fill="#60311E" d="M102.818,17.167c1.254,1.167,1.043,2.708,1.043,4.181
			c0.006,21.937,0.006,43.873,0,65.81c0,1.472,0.219,3.015-1.045,4.177C102.816,66.612,102.818,41.89,102.818,17.167z"/>
		<path fill-rule="evenodd" clip-rule="evenodd" fill="#60311E" d="M170.463,12.068c-1.072,1.371-2.606,1.19-4.071,1.19
			c-18.613,0.006-37.227,0.006-55.839,0c-1.462,0-3,0.205-4.093-1.143C127.793,11.403,149.128,11.492,170.463,12.068z"/>
		<path fill-rule="evenodd" clip-rule="evenodd" fill="#60311E" d="M106.461,96.378c1.307-1.522,3.093-1.111,4.737-1.113
			c18.188-0.021,36.377-0.021,54.565,0c1.646,0.002,3.437-0.39,4.7,1.193C149.128,96.993,127.794,97.154,106.461,96.378z"/>
		<path fill-rule="evenodd" clip-rule="evenodd" fill="#60311E" d="M125.673,32.604c0.679-0.438,1.358-1.259,2.039-1.26
			c13.737-0.047,27.475-0.012,41.212,0.071c0.515,0.003,1.027,0.651,1.541,0.997C155.534,32.476,140.604,32.54,125.673,32.604z"/>
		<path fill-rule="evenodd" clip-rule="evenodd" fill="#60311E" d="M170.472,76.098c-1.679,1.916-3.94,1.176-5.964,1.188
			c-10.998,0.066-21.997,0.07-32.995-0.002c-2.001-0.014-4.306,0.797-5.845-1.373C140.603,75.973,155.538,76.036,170.472,76.098z"/>
		<path fill-rule="evenodd" clip-rule="evenodd" fill="#60311E" d="M125.673,64.631c1.746-2.313,4.289-1.461,6.442-1.339
			c9.355,0.531,18.811-1.505,28.08,1.082C148.688,64.459,137.18,64.545,125.673,64.631z"/>
		<path fill-rule="evenodd" clip-rule="evenodd" fill="#60311E" d="M160.229,45.336c-8.624,2.716-17.471,0.701-26.204,1.135
			c-2.749,0.136-5.935,1.33-8.357-1.306C137.188,45.222,148.709,45.278,160.229,45.336z"/>
		<path fill-rule="evenodd" clip-rule="evenodd" fill="#60311E" d="M174.178,28.597c-1.84-4.238-1.824-8.478-0.017-12.722
			C174.167,20.116,174.173,24.357,174.178,28.597z"/>
		<path fill-rule="evenodd" clip-rule="evenodd" fill="#60311E" d="M174.181,92.668c-1.77-4.26-1.802-8.516,0.022-12.77
			C174.196,84.155,174.188,88.412,174.181,92.668z"/>
	</g>
	<g>
		<path fill-rule="evenodd" clip-rule="evenodd" fill="#60311E" d="M876.464,15.845c0.098-2.408,1.174-3.847,3.757-3.799
			c7.133,1.352,14.337,0.569,21.497,0.527c14.17-0.083,28.353,0.72,42.512-0.448c5.627,4.033,5.625,17.058,0,20.824
			c-15.079-1.201-30.173-0.93-45.262-0.976c-0.268-0.001-0.509,0.597-0.726,0.976c-0.005,3.953-0.009,7.905-0.011,11.857
			c0.638,1.663,2.108,1.147,3.263,1.116c10.83-0.295,21.681,0.727,32.493-0.522c1.482,0.176,2.285,1.019,2.45,2.49
			c-0.828,4.259,0.503,8.64,0.064,12.763c-0.485,2.387-1.253,4.33-3.784,4.325c-11.505-0.628-23.017-2.206-34.476,0
			c-0.005,3.524-0.009,7.05-0.011,10.576c0.213,0.382,0.452,0.982,0.718,0.982c15.098-0.025,30.205,0.79,45.293-0.391
			c5.606,4.088,5.596,16.202-0.018,20.255c-15.425-1.19-30.875-0.318-46.311-0.467c-5.89-0.057-11.826-0.727-17.688,0.505
			c-2.3-0.216-3.539-1.485-3.764-3.771c1.188-4.807,0.498-9.693,0.523-14.537c0.096-18.674,0.056-37.348,0.015-56.022
			C876.995,20.019,877.479,17.859,876.464,15.845z"/>
		<path fill-rule="evenodd" clip-rule="evenodd" fill="#60311E" d="M876.464,15.845c1.562,1.283,1.168,3.074,1.168,4.723
			c0.019,22.459,0.019,44.918,0,67.378c0,1.648,0.396,3.439-1.17,4.721C875.838,67.059,875.832,41.452,876.464,15.845z"/>
		<path fill-rule="evenodd" clip-rule="evenodd" fill="#60311E" d="M944.229,12.125c-1.304,1.526-3.088,1.124-4.735,1.125
			c-18.191,0.02-36.386,0.019-54.58,0c-1.645-0.002-3.436,0.386-4.693-1.204C901.557,11.53,922.894,11.369,944.229,12.125z"/>
		<path fill-rule="evenodd" clip-rule="evenodd" fill="#60311E" d="M880.226,96.438c1.075-1.364,2.608-1.182,4.073-1.182
			c18.611-0.006,37.225-0.007,55.836,0c1.459,0,2.998-0.204,4.09,1.144C922.891,97.105,901.557,97.038,880.226,96.438z"/>
		<path fill-rule="evenodd" clip-rule="evenodd" fill="#60311E" d="M944.242,76.145c-1.717,1.871-3.975,1.129-6.008,1.141
			c-11.248,0.066-22.497,0.088-33.746-0.018c-2.153-0.02-4.791,1.068-6.257-1.715C913.566,75.75,928.904,75.948,944.242,76.145z"/>
		<path fill-rule="evenodd" clip-rule="evenodd" fill="#60311E" d="M898.242,32.949c0.696-1.734,2.208-1.744,3.713-1.744
			c13.152-0.001,26.307-0.023,39.459,0.052c0.94,0.006,1.875,1.303,2.815,1.692C928.9,33.141,913.573,32.758,898.242,32.949z"/>
		<path fill-rule="evenodd" clip-rule="evenodd" fill="#60311E" d="M933.987,45.399c-9.664,2.685-19.526,0.544-29.284,1.086
			c-2.331,0.13-5.265,1.28-6.972-1.679C909.815,45.004,921.902,45.202,933.987,45.399z"/>
		<path fill-rule="evenodd" clip-rule="evenodd" fill="#60311E" d="M898.242,64.978c0.559-1.401,1.729-1.729,3.073-1.728
			c9.747,0.011,19.495,0,29.24,0.086c0.724,0.007,1.44,1.256,2.162,1.642C921.226,65.156,909.732,64.799,898.242,64.978z"/>
		<path fill-rule="evenodd" clip-rule="evenodd" fill="#60311E" d="M936.502,60.653c-1.914-4.245-1.822-8.5-0.064-12.763
			C937.145,52.141,937.049,56.396,936.502,60.653z"/>
	</g>
	<g>
		<path fill-rule="evenodd" clip-rule="evenodd" fill="#60311E" d="M92.135,26.147C91.571,13.501,85.14,3.827,73.122,1.727
			C50.481-2.208,27.162,1.842,4.19,1.624C0.538,1.585-0.013,2.495,0,5.929c0.153,32.339,0.09,64.677,0.09,97.017
			c11.282-0.025,12.337-0.025,21.678-0.025c-0.063-0.256-0.141-0.524-0.192-0.794c-2.114-8.458-2.371-18.655,0.807-27.24
			c-0.013,0.423-0.025,0.858-0.025,1.294c0-0.013,0.013-0.038,0.025-0.051l0.428-0.193h0.366c2.165-2.101,4.881-1.217,7.303-1.114
			c12.043,0.474,24.151-1.333,36.145,0.936c16.912-1.704,22.78-6.957,25.509-22.832C90.341,43.995,90.341,35.065,92.135,26.147z
			 M65.254,52.887c0.679,1.256-0.204,1.372-1.076,1.372c-12.724,0.012-25.446,0.025-38.169-0.065c-0.948,0-1.884-0.729-2.832-1.127
			l-0.794-0.191c-1.743-0.679-1.909-2.191-1.768-3.703c0.794-8.097-1.768-16.387,1.422-24.344
			c13.364-0.115,26.728-0.244,40.091-0.333c2.242-0.013,4.177,0.807,5.419,2.78C69.79,30.85,68.137,49.171,65.254,52.887z"/>
		<path fill-rule="evenodd" clip-rule="evenodd" fill="#60311E" d="M22.383,74.886c-0.013,0.423-0.025,0.858-0.025,1.294
			c-2.512,4.28-0.846,8.943-1.038,13.428c-0.179,4.139-0.692,8.379,0.256,12.519C19.462,93.668,19.206,83.471,22.383,74.886z"/>
		<path fill-rule="evenodd" clip-rule="evenodd" fill="#60311E" d="M66.625,75.757c-14.491-0.524-28.97-0.858-43.448,0.179
			c2.165-2.101,4.881-1.217,7.303-1.114C42.524,75.295,54.632,73.489,66.625,75.757z"/>
		<path fill-rule="evenodd" clip-rule="evenodd" fill="#60311E" d="M92.135,52.925c-1.793-8.931-1.793-17.86,0-26.778
			C91.366,35.065,91.366,43.995,92.135,52.925z"/>
		<path fill-rule="evenodd" clip-rule="evenodd" fill="#60311E" d="M66.625,75.757c-14.479,0.064-28.957,0.128-43.448,0.179
			c2.165-2.101,4.881-1.217,7.303-1.114C42.524,75.295,54.632,73.489,66.625,75.757z"/>
		<path fill-rule="evenodd" clip-rule="evenodd" fill="#60311E" d="M22.383,74.886c-0.013,0.423-0.025,0.858-0.025,1.294
			c-0.205,8.611-0.397,18.232-0.59,26.74c-0.063-0.256-0.141-0.524-0.192-0.794C19.462,93.668,19.206,83.471,22.383,74.886z"/>
		<path fill-rule="evenodd" clip-rule="evenodd" fill="#60311E" d="M92.135,52.925c-1.793-8.931-1.793-17.86,0-26.778
			C92.84,35.065,92.891,43.995,92.135,52.925z"/>
		<path fill-rule="evenodd" clip-rule="evenodd" fill="#60311E" d="M64.178,54.258c-12.724,0.012-25.446,0.025-38.169-0.065
			c-0.948,0-1.884-0.729-2.832-1.127c14.03-0.063,28.059-0.128,42.076-0.179C65.933,54.143,65.05,54.258,64.178,54.258z"/>
		<path fill-rule="evenodd" clip-rule="evenodd" fill="#60311E" d="M22.383,52.875c-1.743-0.679-1.909-2.191-1.768-3.703
			c0.794-8.097-1.768-16.387,1.422-24.344C22.153,34.181,22.268,43.534,22.383,52.875z"/>
	</g>
	<g>
		<path fill-rule="evenodd" clip-rule="evenodd" fill="#60311E" d="M336.521,82.5c3.396-0.021,6.614,0.273,10.177,0.007
			c2.806-0.212,4.196-0.11,6.635-2.284c0.867-1.269,2.021-2.574,2.231-5.512c1.584-22.187-0.036-44.248-0.369-66.725
			c-0.057-5.804,0.333-6.441,4.752-6.421c5.125,0,9.44-0.02,14.563-0.02c2.42,0,4.002,2.128,3.983,3.548
			c-0.008,0.626-0.007,0.392,0.086,2.155c-0.044,25.054,0.106,50.153,0.236,75.206c0.002,0.401,0-1.135-0.024,1.14
			c-1.033,15.121-12.196,20.628-25.278,22.155c-14.713,0.613-27.324,0.072-41.758-0.391c-15.81-0.507-22.018-7.214-24.698-23.13
			c1.585-4.842-0.244-9.648-0.201-14.486c0.181-20.771-0.766-42.795-0.371-63.78c0.052-2.795,1.438-2.398,3-2.398
			c5.551,0,11.102,0,16.653,0c5.965,0,5.965,0,5.798,11.618c0.011,18.704-0.005,37.407,0.007,56.109
			c0.006,9.707,0.717,12.242,10.255,13.105L336.521,82.5z"/>
		<path fill-rule="evenodd" clip-rule="evenodd" fill="#60311E" d="M314.927,85.715c12.189-1.463,24.195,0.578,35.583-0.12
			L314.927,85.715z"/>
		<path fill-rule="evenodd" clip-rule="evenodd" fill="#60311E" d="M287.096,5.591c1.632,1.238,1.228,3.04,1.229,4.685
			c0.024,22.464,0.03,44.928,0.017,67.392c0,1.649,0.273,3.271-1.285,4.561c-1.786-24.995-0.37-49.854-0.61-74.865
			C286.441,6.775,286.871,6.182,287.096,5.591z"/>
		<path fill-rule="evenodd" clip-rule="evenodd" fill="#60311E" d="M354.691,81.067c0.863-15.926,0.304-38.372,0.475-57.56
			c0.049-5.54,0.165-11.079,0.25-16.618c1.528,1.315,1.116,3.112,1.118,4.767c0.021,21.209,0.034,42.377-0.017,63.832
			C356.512,77.475,354.534,83.958,354.691,81.067z"/>
	</g>
	<g>
		<path fill-rule="evenodd" clip-rule="evenodd" fill="#60311E" d="M757.248,96.398c7.456,0.039,12.711,0.077,19.168,0.039
			C770.036,94.464,763.643,94.541,757.248,96.398z M705.627,13.258h51.853c1.28,0,2.575,0.025,3.523-1.077
			c-8.636,1.013-17.297,0.461-25.945,0.397c-10.968-0.09-21.962,0.794-32.902-0.5C703.052,13.232,704.345,13.258,705.627,13.258z
			 M748.176,51.644c1.781,0.154,3.897,0.667,5.15-1.435h-33.208C729.317,53.618,738.838,50.824,748.176,51.644z M739.913,32.643
			c-6.586,0.167-13.402-1.934-19.795,1.307c11.069,0.012,22.139,0.012,33.208,0.025C749.162,30.772,744.334,32.541,739.913,32.643z
			 M702.155,96.424c4.675-0.909,9.058-0.218,14.028-0.039C711.507,94.567,706.817,94.502,702.155,96.424z M698.951,20.817
			c0,20.808-0.025,41.616,0.024,62.424c0.015,4.01-0.473,8.07,0.538,12.043c0-27.354-0.013-54.709-0.013-82.051
			C698.797,15.718,698.951,18.281,698.951,20.817z"/>
		<path fill-rule="evenodd" clip-rule="evenodd" fill="#60311E" d="M778.607,87.583c-4.958-5.457-10.123-10.724-16.003-16.924
			c12.851-1.82,15.375-10.917,16.259-20.885c0.591-6.752,0.551-13.53-0.754-20.296c-2.154-11.159-5.87-15.093-17.106-17.297
			c-0.948,1.102-2.243,1.077-3.523,1.077h-51.853c-1.282,0-2.575-0.025-3.472-1.179c-1.437,0.244-1.359,0.141-2.654,1.153
			c0,27.342,0.013,54.697,0.013,82.051c0.949,1.013,1.347,1.127,2.642,1.141c4.662-1.922,9.352-1.857,14.028-0.039
			c3.279-0.87,4.024-3.318,3.984-6.315c-0.037-4.472,0.154-8.944-0.062-13.403c-0.154-3.112,0.551-4.253,4.074-4.574
			c7.021-0.641,11.941,1.628,16.232,7.278c4.83,6.343,8.917,15.145,16.836,17.027c6.395-1.857,12.788-1.934,19.168,0.039
			C782.092,96.398,782.079,91.415,778.607,87.583z M753.326,50.209c-1.253,2.102-3.369,1.589-5.15,1.435
			c-9.338-0.82-18.858,1.974-28.058-1.435V33.95c6.393-3.241,13.209-1.141,19.795-1.307c4.421-0.103,9.249-1.871,13.413,1.333
			C758.723,39.357,758.723,44.815,753.326,50.209z"/>
		<path fill-rule="evenodd" clip-rule="evenodd" fill="#60311E" d="M697.825,88.928c-0.067-23.113-0.067-46.228,0-69.341
			c0-2.205,0.127-4.344,1.676-6.355c0,27.342,0.013,54.697,0.013,82.051C697.721,92.644,697.825,91.133,697.825,88.928z"/>
		<path fill-rule="evenodd" clip-rule="evenodd" fill="#60311E" d="M761.003,12.181c-0.948,1.102-2.243,1.077-3.523,1.077h-51.853
			c-1.282,0-2.575-0.025-3.472-1.179C721.77,11.694,741.388,11.502,761.003,12.181z"/>
		<path fill-rule="evenodd" clip-rule="evenodd" fill="#60311E" d="M776.416,96.437c-6.393-0.013-12.773-0.026-19.168-0.039
			C763.643,94.541,770.036,94.464,776.416,96.437z"/>
		<path fill-rule="evenodd" clip-rule="evenodd" fill="#60311E" d="M716.184,96.385c-4.677,0.013-9.354,0.025-14.028,0.039
			C706.817,94.502,711.507,94.567,716.184,96.385z"/>
		<path fill-rule="evenodd" clip-rule="evenodd" fill="#60311E" d="M720.118,50.209h33.208
			C742.257,51.58,731.188,51.58,720.118,50.209z"/>
		<path fill-rule="evenodd" clip-rule="evenodd" fill="#60311E" d="M753.326,33.976c-11.069-0.013-22.139-0.013-33.208-0.025
			C731.188,32.618,742.257,32.592,753.326,33.976z"/>
		<path fill-rule="evenodd" clip-rule="evenodd" fill="#60311E" d="M753.326,33.976c-11.069-0.013-22.139-0.013-33.208-0.025
			c6.393-3.241,13.209-1.141,19.795-1.307C744.334,32.541,749.162,30.772,753.326,33.976z"/>
		<path fill-rule="evenodd" clip-rule="evenodd" fill="#60311E" d="M753.326,50.209c-1.253,2.102-3.369,1.589-5.15,1.435
			c-9.338-0.82-18.858,1.974-28.058-1.435H753.326z"/>
	</g>
	
		<circle fill-rule="evenodd" clip-rule="evenodd" fill="#8D744F" stroke="#8D744F" stroke-width="3" stroke-miterlimit="10" cx="776.418" cy="131.669" r="3.563"/>
	<g>
		<path fill="#60311E" d="M879.333,119.161"/>
	</g>
</g>
<line fill="none" x1="204.159" y1="98.775" x2="225.874" y2="73.923"/>
<g>
	
		<line fill="none" stroke="#8D744F" stroke-width="7" stroke-linecap="round" stroke-linejoin="round" stroke-miterlimit="10" x1="888.588" y1="147.846" x2="888.588" y2="118.096"/>
	
		<line fill="none" stroke="#8D744F" stroke-width="7" stroke-linecap="round" stroke-linejoin="round" stroke-miterlimit="10" x1="888.588" y1="118.096" x2="906.161" y2="145.999"/>
	
		<line fill="none" stroke="#8D744F" stroke-width="7" stroke-linecap="round" stroke-linejoin="round" stroke-miterlimit="10" x1="906.161" y1="145.999" x2="922.837" y2="118.096"/>
	
		<line fill="none" stroke="#8D744F" stroke-width="7" stroke-linecap="round" stroke-linejoin="round" stroke-miterlimit="10" x1="922.837" y1="118.096" x2="922.822" y2="147.846"/>
	<path stroke="#8D744F" stroke-width="7" stroke-linecap="round" stroke-linejoin="round" stroke-miterlimit="10" d="
		M842.975,147.846"/>
	<path stroke="#8D744F" stroke-width="7" stroke-linecap="round" stroke-linejoin="round" stroke-miterlimit="10" d="
		M842.975,119.161"/>
	<path stroke="#8D744F" stroke-width="7" stroke-linecap="round" stroke-linejoin="round" stroke-miterlimit="10" d="
		M842.975,147.846"/>
	<path stroke="#8D744F" stroke-width="7" stroke-linecap="round" stroke-linejoin="round" stroke-miterlimit="10" d="
		M879.333,119.161"/>
	<path stroke="#8D744F" stroke-width="7" stroke-linecap="round" stroke-linejoin="round" stroke-miterlimit="10" d="
		M794.424,118.797"/>
	<path stroke="#8D744F" stroke-width="7" stroke-linecap="round" stroke-linejoin="round" stroke-miterlimit="10" d="
		M794.424,147.483"/>
	<path stroke="#8D744F" stroke-width="7" stroke-linecap="round" stroke-linejoin="round" stroke-miterlimit="10" d="
		M825.543,118.797"/>
	<path stroke="#8D744F" stroke-width="7" stroke-linecap="round" stroke-linejoin="round" stroke-miterlimit="10" d="
		M794.424,118.797"/>
	<path stroke="#8D744F" stroke-width="7" stroke-linecap="round" stroke-linejoin="round" stroke-miterlimit="10" d="
		M826.394,121.14"/>
	<path stroke="#8D744F" stroke-width="7" stroke-linecap="round" stroke-linejoin="round" stroke-miterlimit="10" d="
		M823.856,147.483"/>
	<path stroke="#8D744F" stroke-width="7" stroke-linecap="round" stroke-linejoin="round" stroke-miterlimit="10" d="
		M794.424,147.483"/>
	<path stroke="#8D744F" stroke-width="7" stroke-linecap="round" stroke-linejoin="round" stroke-miterlimit="10" d="
		M823.856,147.483"/>
</g>
<path fill="none" stroke="#8D744F" stroke-width="7" stroke-linecap="round" stroke-linejoin="round" stroke-miterlimit="10" d="
	M872.767,133.503c0,7.922-4.734,14.343-12.655,14.343h-9.36c-7.923,0-11.571-6.421-11.571-14.343l0,0
	c0-7.921,3.648-14.343,11.571-14.343h9.36C868.032,119.161,872.767,125.583,872.767,133.503L872.767,133.503z"/>
<path fill="none" stroke="#8D744F" stroke-width="7" stroke-linecap="round" stroke-linejoin="round" stroke-miterlimit="10" d="
	M824.926,145.983c-2.049,1.186-4.431,1.863-6.968,1.863h-9.596c-7.697,0-13.938-6.241-13.938-13.938l0,0
	c0-7.698,6.241-13.939,13.938-13.939h9.596c2.994,0,5.77,0.946,8.042,2.555"/>
</svg>
